…
#predict children with everything else. Children is the outcome in the recipe
hotel_rec<-recipe(children ~.,data=hotel_train ) %>% 
  #need to balance the recipe, ML loves to say"look at those ppl without children XD. We are trying to make children variable even. then we make dummy variables, which turns all factors into numbers.bc some of the numbers are very large and others are very small, we need to normalise those. last step ois to prep the recipe, which goes to the training data and does the training. 
  step_downsample(children) %>% 
  step_dummy(all_nominal(),-all_outcomes()) %>% 
  step_zv(all_numeric()) %>% 
  step_normalize(all_numeric()) %>% 
  prep()

#this is to squeeze data out of the recipe
juice(hotel_rec)
```

    ## # A tibble: 9,176 x 13
    ##    arrival_date_da…    adr adults total_of_specia… stays_in_week_n…
    ##               <dbl>  <dbl>  <dbl>            <dbl>            <dbl>
    ##  1            -1.72  0.523  0.232            0.107            0.792
    ##  2            -1.49  0.495  0.232           -0.974           -0.290
    ##  3            -1.49 -0.369  0.232            1.19             1.33 
    ##  4            -1.38 -0.414 -1.82             1.19             0.792
    ##  5            -1.38 -0.779  0.232            1.19             1.33 
    ##  6            -1.38  0.269  0.232            1.19             1.33 
    ##  7            -1.38  0.430  0.232            0.107            1.87 
    ##  8            -1.27  0.675  0.232            0.107            1.33 
    ##  9            -1.27  0.848  0.232            0.107            1.33 
    ## 10            -1.15  0.720  0.232           -0.974            0.792
    ## # … with 9,166 more rows, and 8 more variables: stays_in_weekend_nights <dbl>,
    ## #   children <fct>, hotel_Resort.Hotel <dbl>, meal_FB <dbl>, meal_HB <dbl>,
    ## #   meal_SC <dbl>, meal_Undefined <dbl>,
    ## #   required_car_parking_spaces_parking <dbl>
…
